<?xml version="1.0" encoding="UTF-8"?>
<svg width="5.0057mm" height="40.684mm" version="1.1" viewBox="0 0 5.0057 40.684" xmlns="http://www.w3.org/2000/svg" xmlns:cc="http://creativecommons.org/ns#" xmlns:dc="http://purl.org/dc/elements/1.1/" xmlns:rdf="http://www.w3.org/1999/02/22-rdf-syntax-ns#">
 <metadata>
  <rdf:RDF>
   <cc:Work rdf:about="">
    <dc:format>image/svg+xml</dc:format>
    <dc:type rdf:resource="http://purl.org/dc/dcmitype/StillImage"/>
    <dc:title/>
   </cc:Work>
  </rdf:RDF>
 </metadata>
 <g transform="translate(-54.453 -218.04)">
  <g transform="translate(60.603 96.647)" stroke="#000" stroke-linejoin="round">
   <path d="m-4.1361 121.72v40.003h1.0583v-40.003z" stroke-width=".0052914px"/>
   <path d="m-6.1468 122.46h5.0004v-1.0583h-5.0004z" stroke-width=".0026457px"/>
   <path d="m-6.1468 162.08h5.0004v-1.0583h-5.0004z" stroke-width=".0052914px"/>
  </g>
 </g>
</svg>
