<?xml version="1.0" encoding="UTF-8" standalone="no"?>
<svg
   xmlns:dc="http://purl.org/dc/elements/1.1/"
   xmlns:cc="http://creativecommons.org/ns#"
   xmlns:rdf="http://www.w3.org/1999/02/22-rdf-syntax-ns#"
   xmlns:svg="http://www.w3.org/2000/svg"
   xmlns="http://www.w3.org/2000/svg"
   xmlns:xlink="http://www.w3.org/1999/xlink"
   xmlns:sodipodi="http://sodipodi.sourceforge.net/DTD/sodipodi-0.dtd"
   xmlns:inkscape="http://www.inkscape.org/namespaces/inkscape"
   width="50.014233mm"
   height="2.1059725mm"
   viewBox="0 0 50.014234 2.1059726"
   version="1.1"
   id="svg8"
   sodipodi:docname="rayon lumineux virtuel vert.svg"
   inkscape:version="1.0.1 (3bc2e813f5, 2020-09-07)">
  <defs
     id="defs2">
    <marker
       style="overflow:visible"
       id="Arrow2Sstart"
       refX="0"
       refY="0"
       orient="auto"
       inkscape:stockid="Arrow2Sstart"
       inkscape:isstock="true">
      <path
         transform="matrix(0.3,0,0,0.3,-0.69,0)"
         d="M 8.7185878,4.0337352 -2.2072895,0.01601326 8.7185884,-4.0017078 c -1.7454984,2.3720609 -1.7354408,5.6174519 -6e-7,8.035443 z"
         style="fill:#000000;fill-opacity:1;fill-rule:evenodd;stroke:#000000;stroke-width:0.625;stroke-linejoin:round;stroke-opacity:1"
         id="path888" />
    </marker>
    <marker
       orient="auto"
       refY="0"
       refX="0"
       id="InfiniteLineStart"
       inkscape:stockid="InfiniteLineStart"
       style="overflow:visible"
       inkscape:isstock="true">
      <g
         transform="translate(-13)"
         style="fill:#000000;fill-opacity:1;stroke:#000000;stroke-opacity:1"
         id="g1108">
        <circle
           cx="3"
           cy="0"
           r="0.80000001"
           id="circle1102"
           style="fill:#000000;fill-opacity:1;stroke:#000000;stroke-opacity:1" />
        <circle
           cx="6.5"
           cy="0"
           r="0.80000001"
           id="circle1104"
           style="fill:#000000;fill-opacity:1;stroke:#000000;stroke-opacity:1" />
        <circle
           cx="10"
           cy="0"
           r="0.80000001"
           id="circle1106"
           style="fill:#000000;fill-opacity:1;stroke:#000000;stroke-opacity:1" />
      </g>
    </marker>
    <marker
       style="overflow:visible"
       id="EmptyTriangleInM"
       refX="0"
       refY="0"
       orient="auto"
       inkscape:stockid="EmptyTriangleInM"
       inkscape:isstock="true">
      <path
         transform="matrix(-0.4,0,0,-0.4,1.8,0)"
         style="fill:#000000;fill-opacity:1;fill-rule:evenodd;stroke:#000000;stroke-width:1pt;stroke-opacity:1"
         d="M 5.77,0 -2.88,5 V -5 Z"
         id="path1012" />
    </marker>
    <marker
       style="overflow:visible"
       id="TriangleInL"
       refX="0"
       refY="0"
       orient="auto"
       inkscape:stockid="TriangleInL"
       inkscape:isstock="true">
      <path
         transform="scale(-0.8)"
         style="fill:#000000;fill-opacity:1;fill-rule:evenodd;stroke:#000000;stroke-width:1pt;stroke-opacity:1"
         d="M 5.77,0 -2.88,5 V -5 Z"
         id="path991" />
    </marker>
    <marker
       style="overflow:visible"
       id="Arrow2Mstart"
       refX="0"
       refY="0"
       orient="auto"
       inkscape:stockid="Arrow2Mstart"
       inkscape:isstock="true">
      <path
         transform="scale(0.6)"
         d="M 8.7185878,4.0337352 -2.2072895,0.01601326 8.7185884,-4.0017078 c -1.7454984,2.3720609 -1.7354408,5.6174519 -6e-7,8.035443 z"
         style="fill:#000000;fill-opacity:1;fill-rule:evenodd;stroke:#000000;stroke-width:0.625;stroke-linejoin:round;stroke-opacity:1"
         id="path882" />
    </marker>
    <marker
       style="overflow:visible"
       id="Arrow1Lend"
       refX="0"
       refY="0"
       orient="auto"
       inkscape:stockid="Arrow1Lend"
       inkscape:isstock="true">
      <path
         transform="matrix(-0.8,0,0,-0.8,-10,0)"
         style="fill-rule:evenodd;stroke:#000000;stroke-width:1pt"
         d="M 0,0 5,-5 -12.5,0 5,5 Z"
         id="path861" />
    </marker>
    <marker
       style="overflow:visible"
       id="Tail"
       refX="0"
       refY="0"
       orient="auto"
       inkscape:stockid="Tail"
       inkscape:isstock="true">
      <g
         transform="scale(-1.2)"
         id="g906"
         style="fill:#000000;fill-opacity:1;stroke:#000000;stroke-opacity:1">
        <path
           style="fill:#000000;fill-opacity:1;fill-rule:evenodd;stroke:#000000;stroke-width:0.8;stroke-linecap:round;stroke-opacity:1"
           d="M -3.8048674,-3.9585227 0.54352094,0"
           id="path894" />
        <path
           style="fill:#000000;fill-opacity:1;fill-rule:evenodd;stroke:#000000;stroke-width:0.8;stroke-linecap:round;stroke-opacity:1"
           d="M -1.2866832,-3.9585227 3.0617053,0"
           id="path896" />
        <path
           style="fill:#000000;fill-opacity:1;fill-rule:evenodd;stroke:#000000;stroke-width:0.8;stroke-linecap:round;stroke-opacity:1"
           d="M 1.3053582,-3.9585227 5.6537466,0"
           id="path898" />
        <path
           style="fill:#000000;fill-opacity:1;fill-rule:evenodd;stroke:#000000;stroke-width:0.8;stroke-linecap:round;stroke-opacity:1"
           d="M -3.8048674,4.1775838 0.54352094,0.21974226"
           id="path900" />
        <path
           style="fill:#000000;fill-opacity:1;fill-rule:evenodd;stroke:#000000;stroke-width:0.8;stroke-linecap:round;stroke-opacity:1"
           d="M -1.2866832,4.1775838 3.0617053,0.21974226"
           id="path902" />
        <path
           style="fill:#000000;fill-opacity:1;fill-rule:evenodd;stroke:#000000;stroke-width:0.8;stroke-linecap:round;stroke-opacity:1"
           d="M 1.3053582,4.1775838 5.6537466,0.21974226"
           id="path904" />
      </g>
    </marker>
    <marker
       style="overflow:visible"
       id="Arrow2Lstart"
       refX="0"
       refY="0"
       orient="auto"
       inkscape:stockid="Arrow2Lstart"
       inkscape:isstock="true">
      <path
         transform="matrix(1.1,0,0,1.1,1.1,0)"
         d="M 8.7185878,4.0337352 -2.2072895,0.01601326 8.7185884,-4.0017078 c -1.7454984,2.3720609 -1.7354408,5.6174519 -6e-7,8.035443 z"
         style="fill:#000000;fill-opacity:1;fill-rule:evenodd;stroke:#000000;stroke-width:0.625;stroke-linejoin:round;stroke-opacity:1"
         id="path876" />
    </marker>
    <marker
       style="overflow:visible"
       id="Arrow1Lstart"
       refX="0"
       refY="0"
       orient="auto"
       inkscape:stockid="Arrow1Lstart"
       inkscape:isstock="true">
      <path
         transform="matrix(0.8,0,0,0.8,10,0)"
         style="fill:#000000;fill-opacity:1;fill-rule:evenodd;stroke:#000000;stroke-width:1pt;stroke-opacity:1"
         d="M 0,0 5,-5 -12.5,0 5,5 Z"
         id="path858" />
    </marker>
    <marker
       style="overflow:visible"
       id="Arrow2Lend"
       refX="0"
       refY="0"
       orient="auto"
       inkscape:stockid="Arrow2Lend"
       inkscape:isstock="true">
      <path
         transform="matrix(-1.1,0,0,-1.1,-1.1,0)"
         d="M 8.7185878,4.0337352 -2.2072895,0.01601326 8.7185884,-4.0017078 c -1.7454984,2.3720609 -1.7354408,5.6174519 -6e-7,8.035443 z"
         style="fill:#000000;fill-opacity:1;fill-rule:evenodd;stroke:#000000;stroke-width:0.625;stroke-linejoin:round;stroke-opacity:1"
         id="path879" />
    </marker>
    <marker
       style="overflow:visible"
       id="Arrow1Mstart"
       refX="0"
       refY="0"
       orient="auto"
       inkscape:stockid="Arrow1Mstart"
       inkscape:isstock="true">
      <path
         transform="matrix(0.4,0,0,0.4,4,0)"
         style="fill:#000000;fill-opacity:1;fill-rule:evenodd;stroke:#000000;stroke-width:1pt;stroke-opacity:1"
         d="M 0,0 5,-5 -12.5,0 5,5 Z"
         id="path864" />
    </marker>
    <pattern
       id="EMFhbasepattern"
       patternUnits="userSpaceOnUse"
       width="6"
       height="6"
       x="0"
       y="0" />
    <image
       id="EMFimage0"
       x="0"
       y="0"
       width="8"
       height="8"
       xlink:href="data:image/png;base64,iVBORw0KGgoAAAANSUhEUgAAAAgAAAAICAIAAABLbSncAAAAN0lEQVQImW2OQQ4AMAjCCv//sztsMUTHSVIiCACqipAktRnM7TMEOLPJPP408+64THvPO75bgQPzthgK8RqfmgAAAABJRU5ErkJggg=="
       preserveAspectRatio="none" />
    <pattern
       id="EMFimage0_ref"
       x="0"
       y="0"
       width="8"
       height="8"
       patternUnits="userSpaceOnUse">
      <use
         id="EMFimage0_ign"
         xlink:href="#EMFimage0" />
    </pattern>
  </defs>
  <sodipodi:namedview
     id="base"
     pagecolor="#ffffff"
     bordercolor="#666666"
     borderopacity="1.0"
     inkscape:pageopacity="0.0"
     inkscape:pageshadow="2"
     inkscape:zoom="3.47"
     inkscape:cx="207.50451"
     inkscape:cy="105.89143"
     inkscape:document-units="mm"
     inkscape:current-layer="layer1"
     inkscape:document-rotation="0"
     showgrid="true"
     inkscape:snap-global="false"
     inkscape:window-width="2215"
     inkscape:window-height="1430"
     inkscape:window-x="125"
     inkscape:window-y="-12"
     inkscape:window-maximized="1">
    <inkscape:grid
       type="xygrid"
       id="grid3653"
       originx="-11.990896"
       originy="-35.957427" />
  </sodipodi:namedview>
  <metadata
     id="metadata5">
    <rdf:RDF>
      <cc:Work
         rdf:about="">
        <dc:format>image/svg+xml</dc:format>
        <dc:type
           rdf:resource="http://purl.org/dc/dcmitype/StillImage" />
        <dc:title></dc:title>
      </cc:Work>
    </rdf:RDF>
  </metadata>
  <g
     inkscape:label="Calque 1"
     inkscape:groupmode="layer"
     id="layer1"
     transform="translate(425.53834,438.80015)">
    <path
       style="fill:#008000;fill-opacity:1;fill-rule:nonzero;stroke:#008000;stroke-width:0.0105828px;stroke-linecap:butt;stroke-linejoin:round;stroke-miterlimit:4;stroke-dasharray:none;stroke-opacity:1"
       d="m -425.53305,-437.75775 h 0.33864 v 0.0847 h -0.33864 z m 0.59263,0 h 0.33864 v 0.0847 h -0.33864 z m 0.59264,0 h 0.33864 v 0.0847 h -0.33864 z m 0.59263,0 h 0.33864 v 0.0847 h -0.33864 z m 0.59264,0 h 0.33865 v 0.0847 h -0.33865 z m 0.59264,0 h 0.33864 v 0.0847 h -0.33864 z m 0.59263,0 h 0.33865 v 0.0847 h -0.33865 z m 0.59264,0 h 0.33865 v 0.0847 h -0.33865 z m 0.59263,0 h 0.33865 v 0.0847 h -0.33865 z m 0.59264,0 h 0.33865 v 0.0847 h -0.33865 z m 0.59263,0 h 0.33865 v 0.0847 h -0.33865 z m 0.59264,0 h 0.33865 v 0.0847 h -0.33865 z m 0.59263,0 h 0.33865 v 0.0847 h -0.33865 z m 0.59264,0 h 0.33865 v 0.0847 h -0.33865 z m 0.59264,0 h 0.33865 v 0.0847 h -0.33865 z m 0.59263,0 h 0.33865 v 0.0847 h -0.33865 z m 0.59264,0 h 0.33865 v 0.0847 h -0.33865 z m 0.59263,0 h 0.33865 v 0.0847 h -0.33865 z m 0.59264,0 h 0.33865 v 0.0847 h -0.33865 z m 0.59264,0 h 0.33865 v 0.0847 h -0.33865 z m 0.59263,0 h 0.33865 v 0.0847 h -0.33865 z m 0.59264,0 h 0.33865 v 0.0847 h -0.33865 z m 0.59263,0 h 0.33865 v 0.0847 h -0.33865 z m 0.59264,0 h 0.33865 v 0.0847 h -0.33865 z m 0.59264,0 h 0.33865 v 0.0847 h -0.33865 z m 0.59263,0 h 0.33865 v 0.0847 h -0.33865 z m 0.59264,0 h 0.33865 v 0.0847 h -0.33865 z m 0.59263,0 h 0.33865 v 0.0847 h -0.33865 z m 0.59264,0 h 0.33865 v 0.0847 h -0.33865 z m 0.59263,0 h 0.33866 v 0.0847 h -0.33866 z m 0.59264,0 h 0.33865 v 0.0847 h -0.33865 z m 0.59264,0 h 0.33864 v 0.0847 h -0.33864 z m 0.59263,0 h 0.33865 v 0.0847 h -0.33865 z m 0.59264,0 h 0.33865 v 0.0847 h -0.33865 z m 0.59263,0 h 0.33866 v 0.0847 h -0.33866 z m 0.59264,0 h 0.33865 v 0.0847 h -0.33865 z m 0.59264,0 h 0.33864 v 0.0847 h -0.33864 z m 0.59263,0 h 0.33865 v 0.0847 h -0.33865 z m 0.59264,0 h 0.33865 v 0.0847 h -0.33865 z m 0.59263,0 h 0.33865 v 0.0847 h -0.33865 z m 0.59264,0 h 0.33865 v 0.0847 h -0.33865 z m 0.59264,0 h 0.33864 v 0.0847 h -0.33864 z m 0.59263,0 h 0.33865 v 0.0847 h -0.33865 z m 0.59264,0 h 0.33865 v 0.0847 h -0.33865 z m 0.59263,0 h 0.33865 v 0.0847 h -0.33865 z m 0.59264,0 h 0.33865 v 0.0847 h -0.33865 z m 0.59264,0 h 0.33864 v 0.0847 h -0.33864 z m 0.59263,0 h 0.33865 v 0.0847 h -0.33865 z m 0.59264,0 h 0.33865 v 0.0847 h -0.33865 z m 0.59263,0 h 0.33865 v 0.0847 h -0.33865 z m 0.59264,0 h 0.33865 v 0.0847 h -0.33865 z m 0.59263,0 h 0.33865 v 0.0847 h -0.33865 z m 0.59264,0 h 0.33865 v 0.0847 h -0.33865 z m 0.59264,0 h 0.33864 v 0.0847 h -0.33864 z m 0.59263,0 h 0.33865 v 0.0847 h -0.33865 z m 0.59264,0 h 0.33865 v 0.0847 h -0.33865 z m 0.59263,0 h 0.33865 v 0.0847 h -0.33865 z m 0.59264,0 h 0.33865 v 0.0847 h -0.33865 z m 0.59264,0 h 0.33864 v 0.0847 h -0.33864 z m 0.59263,0 h 0.33865 v 0.0847 h -0.33865 z m 0.59264,0 h 0.33865 v 0.0847 h -0.33865 z m 0.59263,0 h 0.33865 v 0.0847 h -0.33865 z m 0.59264,0 h 0.33865 v 0.0847 h -0.33865 z m 0.59264,0 h 0.33864 v 0.0847 h -0.33864 z m 0.59263,0 h 0.33865 v 0.0847 h -0.33865 z m 0.59264,0 h 0.33865 v 0.0847 h -0.33865 z m 0.59263,0 h 0.33865 v 0.0847 h -0.33865 z m 0.59264,0 h 0.33865 v 0.0847 h -0.33865 z m 0.59264,0 h 0.33864 v 0.0847 h -0.33864 z m 0.59263,0 h 0.33865 v 0.0847 h -0.33865 z m 0.59264,0 h 0.33865 v 0.0847 h -0.33865 z m 0.59263,0 h 0.33865 v 0.0847 h -0.33865 z m 0.59264,0 h 0.33865 v 0.0847 h -0.33865 z m 0.59263,0 h 0.33865 v 0.0847 h -0.33865 z m 0.59264,0 h 0.33865 v 0.0847 h -0.33865 z m 0.59264,0 h 0.33865 v 0.0847 h -0.33865 z m 0.59263,0 h 0.33865 v 0.0847 h -0.33865 z m 0.59264,0 h 0.33865 v 0.0847 h -0.33865 z m 0.59263,0 h 0.33865 v 0.0847 h -0.33865 z m 0.59264,0 h 0.33865 v 0.0847 h -0.33865 z m 0.59264,0 h 0.33864 v 0.0847 h -0.33864 z m 0.59263,0 h 0.33865 v 0.0847 h -0.33865 z m 0.59264,0 h 0.33865 v 0.0847 h -0.33865 z m 0.59263,0 h 0.33865 v 0.0847 h -0.33865 z m 0.59264,0 h 0.22224 v 0.0847 h -0.22224 z"
       id="path3398" />
    <path
       style="fill:#008000;fill-opacity:1;fill-rule:evenodd;stroke:none;stroke-width:0.264583"
       d="m -401.5313,-438.73136 1.98956,1.01595 -1.98956,1.01594 z"
       id="path3400" />
    <path
       style="fill:#008000;fill-opacity:1;fill-rule:nonzero;stroke:#008000;stroke-width:0.0105828px;stroke-linecap:butt;stroke-linejoin:round;stroke-miterlimit:4;stroke-dasharray:none;stroke-opacity:1"
       d="m -401.57363,-436.69947 v -0.33865 h 0.0847 v 0.33865 z m 0,-0.59263 v -0.33865 h 0.0847 v 0.33865 z m 0,-0.59264 v -0.33865 h 0.0847 v 0.33865 z m 0,-0.59263 v -0.31749 l 0.13757,0.0741 -0.0317,0.0741 -0.0741,-0.0423 0.0529,-0.0423 v 0.25399 z m 0.37039,-0.13758 0.29632,0.15874 -0.0318,0.0741 -0.3069,-0.14816 z m 0.52914,0.27515 0.29631,0.14816 -0.0317,0.0847 -0.30689,-0.15874 z m 0.52913,0.26457 0.29632,0.15874 -0.0423,0.0741 -0.29632,-0.14816 z m 0.51856,0.27515 0.17991,0.0847 -0.26457,0.14816 -0.0423,-0.0847 0.20107,-0.0953 v 0.0741 l -0.10583,-0.0529 z m -0.31749,0.33865 -0.29631,0.15874 -0.0423,-0.0741 0.3069,-0.15874 z m -0.52913,0.27516 -0.29632,0.14815 -0.0423,-0.0741 0.3069,-0.14815 z m -0.51856,0.26456 -0.3069,0.15875 -0.0423,-0.0741 0.3069,-0.15875 z"
       id="path3402" />
  </g>
</svg>
