<?xml version="1.0" encoding="UTF-8"?>
<svg width="50.001mm" height="2.1271mm" version="1.1" viewBox="0 0 50.001 2.1271" xmlns="http://www.w3.org/2000/svg" xmlns:cc="http://creativecommons.org/ns#" xmlns:dc="http://purl.org/dc/elements/1.1/" xmlns:rdf="http://www.w3.org/1999/02/22-rdf-syntax-ns#">
 <metadata>
  <rdf:RDF>
   <cc:Work rdf:about="">
    <dc:format>image/svg+xml</dc:format>
    <dc:type rdf:resource="http://purl.org/dc/dcmitype/StillImage"/>
    <dc:title/>
   </cc:Work>
  </rdf:RDF>
 </metadata>
 <g transform="translate(-115.2 -236.92)">
  <g transform="translate(139.11 138.71)">
   <path d="m-23.905 99.217h49.998v0.08466h-49.998z" stroke="#000" stroke-linejoin="round" stroke-width=".0026457px"/>
   <path d="m0.097014 98.286 1.9896 0.99478-1.9896 0.99478z" fill-rule="evenodd"/>
   <path d="m0.054683 98.22 2.1271 1.0609-2.1271 1.0636zm0.08466 2.0557-0.06085-0.037 1.9896-0.99478v0.07672l-1.9896-0.99478 0.06085-0.03969z" stroke="#000" stroke-linejoin="round" stroke-width=".0026457px"/>
  </g>
 </g>
</svg>
