<?xml version="1.0" encoding="UTF-8" standalone="no"?>
<!-- Created with Inkscape (http://www.inkscape.org/) -->
<svg
   xmlns:svg="http://www.w3.org/2000/svg"
   xmlns="http://www.w3.org/2000/svg"
   version="1.0"
   x="0.00000000"
   y="0.00000000"
   width="70.866142"
   height="70.866142"
   id="svg2">
  <defs
     id="defs4" />
  <path
     d="M 35.500820,35.401844 L 17.784280,44.260104 L 17.784280,26.543574 L 35.500820,35.401844 L 53.217360,26.543574 L 53.217360,44.260104 L 35.500820,35.401844 z "
     style="fill:#ffffff;fill-opacity:1.0000000;fill-rule:evenodd;stroke:#000000;stroke-width:1.2401575;stroke-linecap:butt;stroke-linejoin:round;stroke-miterlimit:4.0000000;stroke-dasharray:none;stroke-opacity:1.0000000"
     id="path3529" />
  <path
     d="M 38.589628,35.431425 C 38.590367,37.154569 37.193718,38.551855 35.470601,38.551855 C 33.747416,38.551855 32.350767,37.154569 32.351507,35.431425 C 32.350767,33.708280 33.747416,32.310999 35.470601,32.310999 C 37.193718,32.310999 38.590367,33.708280 38.589628,35.431425 z "
     style="fill:#000000;fill-opacity:1.0000000;fill-rule:evenodd;stroke:#000000;stroke-width:0.88582635;stroke-linecap:butt;stroke-linejoin:round;stroke-miterlimit:4.0000000;stroke-dasharray:none;stroke-dashoffset:0.00000000;stroke-opacity:1.0000000;display:inline"
     id="path3039" />
</svg>
