<svg xmlns="http://www.w3.org/2000/svg" width="60" height="20" viewBox="0 0 15.876 5.292">
	<g fill="none" stroke-width="2vw">
		<path fill="#fff" d="M2.911.796h10.055V4.5H2.911z" vector-effect="non-scaling-stroke"/>
		<path stroke="#000"
			  d="M15.876 2.648H13.23c-.186-1.115-.91-1.706-1.59-1.663-.68.044-1.312.722-1.312 2.143 0 1.6 1.399 1.6 1.399.013 0-2.856-3.538-2.856-3.538-.011 0 1.598 1.399 1.589 1.399-.005 0-2.849-3.465-2.84-3.465.016 0 1.586 1.391 1.578 1.391-.03 0-2.835-3.468-2.826-3.468.014 0 1.592 1.408 1.591 1.408.021C5.454.285 3.01.47 2.647 2.648H0"
			  vector-effect="non-scaling-stroke"/>
	</g>
</svg>
