<?xml version="1.0" encoding="UTF-8"?>
<svg width="77.018" height="102.22" version="1.1" xmlns="http://www.w3.org/2000/svg" xmlns:cc="http://creativecommons.org/ns#" xmlns:dc="http://purl.org/dc/elements/1.1/" xmlns:rdf="http://www.w3.org/1999/02/22-rdf-syntax-ns#">
 <metadata>
  <rdf:RDF>
   <cc:Work rdf:about="">
    <dc:format>image/svg+xml</dc:format>
    <dc:type rdf:resource="http://purl.org/dc/dcmitype/StillImage"/>
    <dc:title/>
   </cc:Work>
  </rdf:RDF>
 </metadata>
 <g class="" transform="translate(-172.66 -122.31)" fill-rule="evenodd">
  <path class="" d="m248.62 182.67c1.013 20.961-14.935 38.786-35.621 39.813-20.686 1.026-38.276-15.135-39.289-36.097-0.055-1.135-0.06-2.272-0.014-3.408z" fill="#dce6f2"/>
  <g fill="none" stroke="#4a7ebb" stroke-linejoin="round" stroke-miterlimit="10" stroke-width="2">
   <path class="" d="m199.67 128.53v21.823"/>
   <path class="" d="m222.67 128.53 0.222 21.583"/>
   <path class="" d="m196.67 123.31c1.657 0 3 2.462 3 5.5"/>
   <path class="" d="m225.67 123.31c-1.6569 0-3 2.4624-3 5.5"/>
   <path class="" d="m222.91 149.44c19.669 6.573 30.356 28.058 23.87 47.989-6.486 19.931-27.689 30.761-47.358 24.189-19.669-6.573-30.356-28.058-23.87-47.989 3.779-11.612 12.84-20.672 24.348-24.345"/>
  </g>
 </g>
</svg>
