<?xml version="1.0" encoding="UTF-8"?>
<svg width="58.016" height="23.333" overflow="hidden" version="1.1" xmlns="http://www.w3.org/2000/svg" xmlns:cc="http://creativecommons.org/ns#" xmlns:dc="http://purl.org/dc/elements/1.1/" xmlns:rdf="http://www.w3.org/1999/02/22-rdf-syntax-ns#">
 <metadata>
  <rdf:RDF>
   <cc:Work rdf:about="">
    <dc:format>image/svg+xml</dc:format>
    <dc:type rdf:resource="http://purl.org/dc/dcmitype/StillImage"/>
    <dc:title/>
   </cc:Work>
  </rdf:RDF>
 </metadata>
 <g transform="translate(-2.328,-40.068)" fill="none" fill-rule="evenodd" stroke="#000" stroke-linecap="round" stroke-miterlimit="8" stroke-width="1.3333">
  <path d="m16.634 40.735 28.696 10h14.348"/>
  <path d="m2.9947 42.735h21.563"/>
  <path d="m2.9947 62.735h21.563"/>
 </g>
</svg>
