<?xml version="1.0" encoding="UTF-8"?>
<svg width="60.339" height="38.161" overflow="hidden" version="1.1" xmlns="http://www.w3.org/2000/svg" xmlns:cc="http://creativecommons.org/ns#" xmlns:dc="http://purl.org/dc/elements/1.1/" xmlns:rdf="http://www.w3.org/1999/02/22-rdf-syntax-ns#">
 <metadata>
  <rdf:RDF>
   <cc:Work rdf:about="">
    <dc:format>image/svg+xml</dc:format>
    <dc:type rdf:resource="http://purl.org/dc/dcmitype/StillImage"/>
    <dc:title/>
   </cc:Work>
  </rdf:RDF>
 </metadata>
 <g transform="translate(-46.5 -215.04)" stroke="#000" stroke-miterlimit="8" stroke-width="1.3333">
  <rect x="57.5" y="229.5" width="38" height="15" fill="#fff"/>
  <g fill="none" fill-rule="evenodd">
   <path d="m60.5 252.74 32.391-34.24"/>
   <path d="m57.676 236.5-11.176 1e-4"/>
   <path d="m95.5 236.5h11.339"/>
   <path d="m88.5 215.5 7.6339 7.906"/>
  </g>
 </g>
</svg>
