<?xml version="1.0" encoding="UTF-8"?>
<svg width="38" height="41.333" overflow="hidden" version="1.1" xmlns="http://www.w3.org/2000/svg" xmlns:cc="http://creativecommons.org/ns#" xmlns:dc="http://purl.org/dc/elements/1.1/" xmlns:rdf="http://www.w3.org/1999/02/22-rdf-syntax-ns#">
 <metadata>
  <rdf:RDF>
   <cc:Work rdf:about="">
    <dc:format>image/svg+xml</dc:format>
    <dc:type rdf:resource="http://purl.org/dc/dcmitype/StillImage"/>
    <dc:title/>
   </cc:Work>
  </rdf:RDF>
 </metadata>
 <g transform="translate(2 -58.333)" fill="none" fill-rule="evenodd" stroke="#000" stroke-miterlimit="8" stroke-width="1.3333">
  <path d="m-2 59h10.839s5.161 0 5.161 5-5.161 5-5.161 5 5.161 0 5.161 5-5.161 5-5.161 5 5.161 0 5.161 5-5.161 5-5.161 5 5.161 0 5.161 5-5.161 5-5.161 5h-10.839"/>
  <path d="m36 59h-10s-5 0-5 5 5 5 5 5-5 0-5 5 5 5 5 5-5 0-5 5 5 5 5 5-5 0-5 5 5 5 5 5h10"/>
 </g>
</svg>
