<?xml version="1.0" encoding="UTF-8" standalone="no"?>
<!-- Created with Inkscape (http://www.inkscape.org/) -->

<svg
   width="70.866142"
   height="70.865997"
   id="svg2186"
   sodipodi:version="0.32"
   inkscape:version="1.2 (56b05e47e7, 2022-06-09, custom)"
   version="1.0"
   sodipodi:docname="Ventilateur 2-Fan.svg"
   inkscape:output_extension="org.inkscape.output.svg.inkscape"
   xmlns:inkscape="http://www.inkscape.org/namespaces/inkscape"
   xmlns:sodipodi="http://sodipodi.sourceforge.net/DTD/sodipodi-0.dtd"
   xmlns="http://www.w3.org/2000/svg"
   xmlns:svg="http://www.w3.org/2000/svg"
   xmlns:rdf="http://www.w3.org/1999/02/22-rdf-syntax-ns#"
   xmlns:cc="http://creativecommons.org/ns#"
   xmlns:dc="http://purl.org/dc/elements/1.1/">
  <defs
     id="defs2188" />
  <sodipodi:namedview
     id="base"
     pagecolor="#ffffff"
     bordercolor="#666666"
     borderopacity="1.0"
     gridtolerance="10"
     guidetolerance="10"
     objecttolerance="10"
     inkscape:pageopacity="0.0"
     inkscape:pageshadow="2"
     inkscape:zoom="5.6"
     inkscape:cx="36.071429"
     inkscape:cy="20.357143"
     inkscape:document-units="mm"
     inkscape:current-layer="layer1"
     width="20mm"
     height="20mm"
     units="mm"
     inkscape:window-width="958"
     inkscape:window-height="1043"
     inkscape:window-x="72"
     inkscape:window-y="0"
     showgrid="false"
     inkscape:window-maximized="0"
     inkscape:showpageshadow="2"
     inkscape:pagecheckerboard="0"
     inkscape:deskcolor="#d1d1d1">
    <inkscape:grid
       type="xygrid"
       id="grid2200"
       spacingx="3.3218504"
       spacingy="3.3218504"
       units="mm"
       originx="0"
       originy="0" />
  </sodipodi:namedview>
  <metadata
     id="metadata2191">
    <rdf:RDF>
      <cc:Work
         rdf:about="">
        <dc:format>image/svg+xml</dc:format>
        <dc:type
           rdf:resource="http://purl.org/dc/dcmitype/StillImage" />
      </cc:Work>
    </rdf:RDF>
  </metadata>
  <g
     inkscape:label="Layer 1"
     inkscape:groupmode="layer"
     id="layer1">
    <path
       style="fill:none;stroke:#000000;stroke-width:0.817054;stroke-linecap:butt;stroke-linejoin:miter;stroke-miterlimit:4;stroke-opacity:1"
       d="M 48.840559,39.869581 20.607014,31.256289 m 0,8.613292 28.228097,-8.613292 m 0.0053,8.613292 c 0.42281,0.13632 0.983399,0.279586 1.406225,0.279586 2.400534,0 4.521452,-2.114089 4.521452,-4.514624 0,-2.400534 -2.120918,-4.521468 -4.521452,-4.521468 -0.422826,0 -0.998413,0.0013 -1.421239,0.144555 m -28.206535,-0.0014 c -0.281483,-0.09678 -0.89038,-0.142112 -1.320032,-0.142112 -2.400534,0 -4.514628,2.120934 -4.514628,4.521468 0,2.400534 2.146828,4.514624 4.547361,4.514624 0.429654,0 0.852462,-0.143159 1.275289,-0.279586"
       id="path1404"
       inkscape:connector-curvature="0"
       sodipodi:nodetypes="cccccsssccsssc" />
  </g>
</svg>
