<?xml version="1.0" encoding="UTF-8" standalone="no"?>
<!-- Created with Inkscape (http://www.inkscape.org/) -->

<svg
   width="15.875005mm"
   height="10.583333mm"
   viewBox="0 0 15.875004 10.583333"
   version="1.1"
   id="svg5"
   inkscape:version="1.1.1 (eb90963e84, 2021-10-02)"
   sodipodi:docname="commutateur-ferme-haut.svg"
   inkscape:export-filename="/home/anthony/Documents/work/labnbook/labnbook/public/tool_zwibbler/icons/phy_elec_new/fulllib-zwibblersvg.png"
   inkscape:export-xdpi="96"
   inkscape:export-ydpi="96"
   xmlns:inkscape="http://www.inkscape.org/namespaces/inkscape"
   xmlns:sodipodi="http://sodipodi.sourceforge.net/DTD/sodipodi-0.dtd"
   xmlns="http://www.w3.org/2000/svg"
   xmlns:svg="http://www.w3.org/2000/svg"
   xmlns:rdf="http://www.w3.org/1999/02/22-rdf-syntax-ns#"
   xmlns:cc="http://creativecommons.org/ns#"
   xmlns:dc="http://purl.org/dc/elements/1.1/">
  <metadata
     id="metadata450">
    <rdf:RDF>
      <cc:Work
         rdf:about="">
        <dc:format>image/svg+xml</dc:format>
        <dc:type
           rdf:resource="http://purl.org/dc/dcmitype/StillImage" />
      </cc:Work>
    </rdf:RDF>
  </metadata>
  <sodipodi:namedview
     id="namedview7"
     pagecolor="#ffffff"
     bordercolor="#666666"
     borderopacity="1.0"
     inkscape:pageshadow="2"
     inkscape:pageopacity="0.0"
     inkscape:pagecheckerboard="0"
     inkscape:document-units="mm"
     showgrid="true"
     showguides="true"
     inkscape:guide-bbox="true"
     inkscape:zoom="21.124655"
     inkscape:cx="29.302254"
     inkscape:cy="12.686598"
     inkscape:window-width="1853"
     inkscape:window-height="1025"
     inkscape:window-x="67"
     inkscape:window-y="27"
     inkscape:window-maximized="1"
     inkscape:current-layer="g30259"
     inkscape:snap-page="true"
     inkscape:snap-text-baseline="true"
     inkscape:snap-center="true"
     inkscape:snap-object-midpoints="true"
     inkscape:snap-midpoints="true"
     inkscape:snap-smooth-nodes="true"
     inkscape:snap-intersection-paths="true"
     inkscape:object-paths="true"
     inkscape:snap-grids="false"
     fit-margin-top="0"
     fit-margin-left="0"
     fit-margin-right="0"
     fit-margin-bottom="0">
    <inkscape:grid
       type="xygrid"
       id="grid130"
       originx="-68.791941"
       originy="-149.49177"
       dotted="false" />
    <sodipodi:guide
       position="1.9064603,9.2527444"
       orientation="0,-1"
       id="guide1691" />
    <sodipodi:guide
       position="2.6427452,9.9445649"
       orientation="1,0"
       id="guide1693" />
  </sodipodi:namedview>
  <defs
     id="defs2" />
  <g
     inkscape:label="Calque 1"
     inkscape:groupmode="layer"
     id="layer1"
     transform="translate(-68.792007,-149.49184)">
    <g
       id="g30259"
       style="fill:none">
      <rect
         style="fill:#ffffff;fill-opacity:1;stroke-width:0.264583;stroke-linecap:round;stroke-miterlimit:8;paint-order:fill markers stroke"
         id="rect1329"
         width="9.2654734"
         height="7.9243312"
         x="71.434753"
         y="150.82243" />
      <rect
         style="opacity:0.337672;fill:none;fill-opacity:1;stroke-width:0.26458333;stroke-linecap:round;stroke-miterlimit:4;stroke-dasharray:none"
         id="rect1285-3-62"
         width="15.875"
         height="10.583333"
         x="68.792007"
         y="149.49184" />
      <g
         id="g8108"
         transform="matrix(1.1113382,0,0,0.96742012,-9.3034816,5.0964478)"
         style="fill:none;fill-opacity:1;stroke-width:0.25517129;stroke-miterlimit:4;stroke-dasharray:none">
        <path
           d="m 72.538169,151.38702 8.302457,3.36116 h 3.715537"
           id="path66"
           style="fill:none;fill-opacity:1;fill-rule:evenodd;stroke:#000000;stroke-width:0.25517129;stroke-linecap:butt;stroke-miterlimit:4;stroke-dasharray:none"
           sodipodi:nodetypes="ccc" />
        <g
           style="overflow:hidden;fill:none;fill-opacity:1;stroke-width:0.96442692;stroke-miterlimit:4;stroke-dasharray:none"
           id="g106"
           transform="matrix(0.26458333,0,0,0.26458333,70.095191,151.92587)">
          <g
             transform="translate(-0.04687,-45.5)"
             fill="none"
             fill-rule="evenodd"
             stroke="#000000"
             stroke-linecap="round"
             stroke-miterlimit="8"
             stroke-width="1.3333"
             id="g94"
             style="fill:none;fill-opacity:1;stroke-width:0.96442692;stroke-miterlimit:4;stroke-dasharray:none">
            <path
               d="M 0.71352967,45.743927 H 23.205978"
               id="path88"
               style="fill:none;fill-opacity:1;stroke-width:0.96442692;stroke-linecap:butt;stroke-miterlimit:4;stroke-dasharray:none"
               sodipodi:nodetypes="cc" />
            <path
               d="m 0.71354,66.417 h 22.5"
               id="path90"
               style="fill:none;fill-opacity:1;stroke-width:0.96442692;stroke-linecap:butt;stroke-miterlimit:4;stroke-dasharray:none" />
          </g>
        </g>
      </g>
    </g>
  </g>
</svg>
