<?xml version="1.0" encoding="UTF-8" standalone="no"?>
<!-- Created with Inkscape (http://www.inkscape.org/) -->

<svg
   width="15.875111mm"
   height="10.583333mm"
   viewBox="0 0 15.87511 10.583333"
   version="1.1"
   id="svg5"
   inkscape:version="1.1.1 (1:1.1+202109281949+c3084ef5ed)"
   sodipodi:docname="condensateur.svg"
   inkscape:export-filename="/home/anthony/Documents/work/labnbook/labnbook/public/tool_zwibbler/icons/phy_elec_new/fulllib-zwibblersvg.png"
   inkscape:export-xdpi="96"
   inkscape:export-ydpi="96"
   xmlns:inkscape="http://www.inkscape.org/namespaces/inkscape"
   xmlns:sodipodi="http://sodipodi.sourceforge.net/DTD/sodipodi-0.dtd"
   xmlns="http://www.w3.org/2000/svg"
   xmlns:svg="http://www.w3.org/2000/svg"
   xmlns:rdf="http://www.w3.org/1999/02/22-rdf-syntax-ns#"
   xmlns:cc="http://creativecommons.org/ns#"
   xmlns:dc="http://purl.org/dc/elements/1.1/">
  <metadata
     id="metadata450">
    <rdf:RDF>
      <cc:Work
         rdf:about="">
        <dc:format>image/svg+xml</dc:format>
        <dc:type
           rdf:resource="http://purl.org/dc/dcmitype/StillImage" />
      </cc:Work>
    </rdf:RDF>
  </metadata>
  <sodipodi:namedview
     id="namedview7"
     pagecolor="#ffffff"
     bordercolor="#666666"
     borderopacity="1.0"
     inkscape:pageshadow="2"
     inkscape:pageopacity="0.0"
     inkscape:pagecheckerboard="0"
     inkscape:document-units="mm"
     showgrid="true"
     showguides="true"
     inkscape:guide-bbox="true"
     inkscape:zoom="16"
     inkscape:cx="29.1875"
     inkscape:cy="22.75"
     inkscape:window-width="2488"
     inkscape:window-height="1403"
     inkscape:window-x="1992"
     inkscape:window-y="0"
     inkscape:window-maximized="1"
     inkscape:current-layer="layer1"
     inkscape:snap-page="true"
     inkscape:snap-text-baseline="true"
     inkscape:snap-center="true"
     inkscape:snap-object-midpoints="true"
     inkscape:snap-midpoints="true"
     inkscape:snap-smooth-nodes="true"
     inkscape:snap-intersection-paths="true"
     inkscape:object-paths="true"
     inkscape:snap-grids="false"
     fit-margin-top="0"
     fit-margin-left="0"
     fit-margin-right="0"
     fit-margin-bottom="0">
    <inkscape:grid
       type="xygrid"
       id="grid130"
       originx="-112.44446"
       originy="-149.48966"
       dotted="false" />
    <sodipodi:guide
       position="7.9479436,9.0964842"
       orientation="1,0"
       id="guide1311"
       inkscape:locked="false" />
    <sodipodi:guide
       position="6.6185426,8.6312612"
       orientation="1,0"
       id="guide1313"
       inkscape:locked="false" />
    <sodipodi:guide
       position="9.2638976,8.0671742"
       orientation="1,0"
       id="guide1315"
       inkscape:locked="false" />
    <sodipodi:guide
       position="7.1489406,9.2351922"
       orientation="1,0"
       id="guide5241"
       inkscape:locked="false" />
    <sodipodi:guide
       position="8.7354916,9.2046132"
       orientation="1,0"
       id="guide5243"
       inkscape:locked="false" />
    <sodipodi:guide
       position="16.142791,5.2916742"
       orientation="0,1"
       id="guide5245"
       inkscape:locked="false" />
    <sodipodi:guide
       position="15.958186,10.582816"
       orientation="0,1"
       id="guide5247"
       inkscape:locked="false" />
    <sodipodi:guide
       position="0.00010779998,11.246867"
       orientation="1,0"
       id="guide5253"
       inkscape:locked="false" />
    <sodipodi:guide
       position="15.875109,8.6671802"
       orientation="1,0"
       id="guide5255"
       inkscape:locked="false" />
  </sodipodi:namedview>
  <defs
     id="defs2" />
  <g
     inkscape:label="Calque 1"
     inkscape:groupmode="layer"
     id="layer1"
     transform="translate(-112.44457,-149.49391)">
    <g
       id="g840"
       transform="matrix(0.28695813,0,0,0.75274934,98.564329,38.271564)">
      <rect
         style="fill:#ffffff;fill-opacity:1;stroke-width:0.264583;stroke-linecap:round;stroke-miterlimit:8;paint-order:fill markers stroke"
         id="rect1329"
         width="9.2654734"
         height="7.9243312"
         x="71.434753"
         y="150.82243" />
    </g>
    <rect
       style="opacity:0.33767221;fill:none;stroke-width:25.77700043;stroke-linecap:round;stroke-miterlimit:8"
       id="rect1285-3-62-1"
       width="15.875"
       height="10.583333"
       x="112.44468"
       y="149.49391" />
    <path
       inkscape:connector-curvature="0"
       style="fill:none;fill-rule:evenodd;stroke:#000000;stroke-width:0.26458333;stroke-linecap:butt;stroke-miterlimit:4;stroke-dasharray:none"
       id="path110"
       d="m 112.44468,154.78256 7.14883,0.006"
       sodipodi:nodetypes="cc" />
    <path
       inkscape:connector-curvature="0"
       style="fill:none;fill-rule:evenodd;stroke:#000000;stroke-width:0.26458332;stroke-linecap:butt;stroke-miterlimit:4;stroke-dasharray:none"
       id="path112"
       d="m 121.18006,154.78557 h 7.13962"
       sodipodi:nodetypes="cc" />
    <path
       inkscape:connector-curvature="0"
       style="fill:none;fill-rule:evenodd;stroke:#000000;stroke-width:0.79374999;stroke-miterlimit:4;stroke-dasharray:none"
       id="path114"
       d="m 119.59349,157.78554 4e-5,-5.99996" />
    <path
       inkscape:connector-curvature="0"
       style="fill:none;fill-rule:evenodd;stroke:#000000;stroke-width:0.79374999;stroke-miterlimit:4;stroke-dasharray:none"
       id="path116-3"
       d="m 121.18009,157.78554 -6e-5,-5.99996" />
  </g>
</svg>
