<?xml version="1.0" encoding="UTF-8" standalone="no"?>
<!-- Created with Inkscape (http://www.inkscape.org/) -->

<svg
	width="15.875003mm"
	height="10.583333mm"
	viewBox="0 0 15.875001 10.583333"
	version="1.1"
	id="svg5"
	inkscape:version="1.1.1 (1:1.1+202109281949+c3084ef5ed)"
	sodipodi:docname="dipole.svg"
	inkscape:export-filename="/home/anthony/Documents/work/labnbook/labnbook/public/tool_zwibbler/icons/phy_elec_new/fulllib-zwibblersvg.png"
	inkscape:export-xdpi="96"
	inkscape:export-ydpi="96"
	xmlns:inkscape="http://www.inkscape.org/namespaces/inkscape"
	xmlns:sodipodi="http://sodipodi.sourceforge.net/DTD/sodipodi-0.dtd"
	xmlns="http://www.w3.org/2000/svg"
	xmlns:svg="http://www.w3.org/2000/svg"
	xmlns:rdf="http://www.w3.org/1999/02/22-rdf-syntax-ns#"
	xmlns:cc="http://creativecommons.org/ns#"
	xmlns:dc="http://purl.org/dc/elements/1.1/">
	<metadata
		id="metadata450">
		<rdf:RDF>
			<cc:Work
				rdf:about="">
				<dc:format>image/svg+xml</dc:format>
				<dc:type
					rdf:resource="http://purl.org/dc/dcmitype/StillImage" />
			</cc:Work>
		</rdf:RDF>
	</metadata>
	<sodipodi:namedview
		id="namedview7"
		pagecolor="#ffffff"
		bordercolor="#666666"
		borderopacity="1.0"
		inkscape:pageshadow="2"
		inkscape:pageopacity="0.0"
		inkscape:pagecheckerboard="0"
		inkscape:document-units="mm"
		showgrid="true"
		showguides="true"
		inkscape:guide-bbox="true"
		inkscape:zoom="11.313709"
		inkscape:cx="28.372658"
		inkscape:cy="12.28598"
		inkscape:window-width="2488"
		inkscape:window-height="1403"
		inkscape:window-x="1992"
		inkscape:window-y="0"
		inkscape:window-maximized="1"
		inkscape:current-layer="layer1"
		inkscape:snap-page="true"
		inkscape:snap-text-baseline="true"
		inkscape:snap-center="true"
		inkscape:snap-object-midpoints="true"
		inkscape:snap-midpoints="true"
		inkscape:snap-smooth-nodes="true"
		inkscape:snap-intersection-paths="true"
		inkscape:object-paths="true"
		inkscape:snap-grids="false"
		fit-margin-top="0"
		fit-margin-left="0"
		fit-margin-right="0"
		fit-margin-bottom="0">
		<inkscape:grid
			type="xygrid"
			id="grid130"
			originx="-89.958989"
			originy="-162.71875"
			dotted="false" />
	</sodipodi:namedview>
	<defs
		id="defs2" />
	<g
		inkscape:label="Calque 1"
		inkscape:groupmode="layer"
		id="layer1"
		transform="translate(-89.959119,-162.71887)">
		<rect
			style="opacity:0.337672;fill:none;stroke-width:0.26458333;stroke-linecap:round;stroke-miterlimit:4;stroke-dasharray:none"
			id="rect1285-3-62-2-0"
			width="15.875"
			height="10.583333"
			x="89.959122"
			y="162.71887" />
		<path
			d="m 102.16189,168.01054 c 0,2.36564 -1.91691,4.28334 -4.28149,4.28334 -2.364581,0 -4.281752,-1.9177 -4.281752,-4.28334 0,-2.36564 1.917171,-4.28334 4.281752,-4.28334 2.36458,0 4.28149,1.9177 4.28149,4.28334 z"
			stroke-miterlimit="10"
			id="path225"
			style="fill:#ffffff;fill-rule:evenodd;stroke:#000000;stroke-width:0.26458332;stroke-linecap:round;stroke-linejoin:round;stroke-miterlimit:4;stroke-dasharray:none;fill-opacity:1"
			inkscape:connector-curvature="0" />
		<path
			d="m 102.27328,168.01054 h 3.56084"
			stroke-miterlimit="8"
			id="path227"
			style="fill:none;fill-rule:evenodd;stroke:#000000;stroke-width:0.26458332;stroke-linecap:butt;stroke-miterlimit:4;stroke-dasharray:none"
			sodipodi:nodetypes="cc"
			inkscape:connector-curvature="0" />
		<path
			d="m 89.95912,168.01054 h 3.608836"
			stroke-miterlimit="8"
			id="path229"
			style="fill:none;fill-rule:evenodd;stroke:#000000;stroke-width:0.26458332;stroke-linecap:butt;stroke-miterlimit:4;stroke-dasharray:none"
			sodipodi:nodetypes="cc"
			inkscape:connector-curvature="0" />
	</g>
</svg>
