<?xml version="1.0" encoding="UTF-8" standalone="no"?>
<!-- Created with Inkscape (http://www.inkscape.org/) -->

<svg
   width="15.87507mm"
   height="10.583333mm"
   viewBox="0 0 15.875068 10.583333"
   version="1.1"
   id="svg5"
   inkscape:version="1.1.1 (1:1.1+202109281949+c3084ef5ed)"
   sodipodi:docname="generateur-courant.svg"
   inkscape:export-filename="/home/anthony/Documents/work/labnbook/labnbook/public/tool_zwibbler/icons/phy_elec_new/fulllib-zwibblersvg.png"
   inkscape:export-xdpi="96"
   inkscape:export-ydpi="96"
   xmlns:inkscape="http://www.inkscape.org/namespaces/inkscape"
   xmlns:sodipodi="http://sodipodi.sourceforge.net/DTD/sodipodi-0.dtd"
   xmlns="http://www.w3.org/2000/svg"
   xmlns:svg="http://www.w3.org/2000/svg"
   xmlns:rdf="http://www.w3.org/1999/02/22-rdf-syntax-ns#"
   xmlns:cc="http://creativecommons.org/ns#"
   xmlns:dc="http://purl.org/dc/elements/1.1/">
  <metadata
     id="metadata1350">
    <rdf:RDF>
      <cc:Work
         rdf:about="">
        <dc:format>image/svg+xml</dc:format>
        <dc:type
           rdf:resource="http://purl.org/dc/dcmitype/StillImage" />
      </cc:Work>
    </rdf:RDF>
  </metadata>
  <sodipodi:namedview
     id="namedview7"
     pagecolor="#ffffff"
     bordercolor="#666666"
     borderopacity="1.0"
     inkscape:pageshadow="2"
     inkscape:pageopacity="0.0"
     inkscape:pagecheckerboard="0"
     inkscape:document-units="mm"
     showgrid="true"
     showguides="true"
     inkscape:guide-bbox="true"
     inkscape:zoom="16"
     inkscape:cx="40.1875"
     inkscape:cy="19.25"
     inkscape:window-width="2488"
     inkscape:window-height="1403"
     inkscape:window-x="1992"
     inkscape:window-y="0"
     inkscape:window-maximized="1"
     inkscape:current-layer="layer1"
     inkscape:snap-page="true"
     inkscape:snap-text-baseline="true"
     inkscape:snap-center="true"
     inkscape:snap-object-midpoints="true"
     inkscape:snap-midpoints="true"
     inkscape:snap-smooth-nodes="true"
     inkscape:snap-intersection-paths="true"
     inkscape:object-paths="true"
     inkscape:snap-grids="false"
     fit-margin-top="0"
     fit-margin-left="0"
     fit-margin-right="0"
     fit-margin-bottom="0">
    <inkscape:grid
       type="xygrid"
       id="grid130"
       originx="-137.58258"
       originy="-162.71875"
       dotted="false" />
  </sodipodi:namedview>
  <defs
     id="defs2" />
  <g
     inkscape:label="Calque 1"
     inkscape:groupmode="layer"
     id="layer1"
     transform="translate(-137.58273,-162.71887)">
    <rect
       style="opacity:1;fill:none;stroke-width:0.26458333;stroke-linecap:round;stroke-miterlimit:5;stroke-dasharray:none"
       id="rect1285-3-5"
       width="15.875"
       height="10.583333"
       x="137.58279"
       y="162.71887" />
    <path
       d="m 149.80191,168.01054 c 0,2.36564 -1.91691,4.28334 -4.28149,4.28334 -2.36458,0 -4.28175,-1.9177 -4.28175,-4.28334 0,-2.36564 1.91717,-4.28334 4.28175,-4.28334 2.36458,0 4.28149,1.9177 4.28149,4.28334 z"
       stroke-miterlimit="10"
       id="path225-3"
       style="fill:#ffffff;fill-rule:evenodd;stroke:#000000;stroke-width:0.26458333;stroke-linecap:round;stroke-linejoin:round;stroke-miterlimit:5;stroke-dasharray:none;opacity:1;fill-opacity:1"
       inkscape:connector-curvature="0" />
    <path
       d="m 149.84108,168.01104 3.61665,-0.001"
       stroke-miterlimit="8"
       id="path227-5"
       style="fill:none;fill-rule:evenodd;stroke:#000000;stroke-width:0.26458333;stroke-linecap:butt;stroke-miterlimit:5;stroke-dasharray:none;opacity:1"
       sodipodi:nodetypes="cc"
       inkscape:connector-curvature="0" />
    <path
       d="m 137.5828,168.01004 3.55296,0.001"
       stroke-miterlimit="8"
       id="path229-7"
       style="fill:none;fill-rule:evenodd;stroke:#000000;stroke-width:0.26458333;stroke-linecap:butt;stroke-miterlimit:5;stroke-dasharray:none;opacity:1"
       sodipodi:nodetypes="cc"
       inkscape:connector-curvature="0" />
    <path
       d="m 145.52029,163.7272 v 8.56668"
       id="path274-0"
       style="fill:none;fill-rule:evenodd;stroke:#000000;stroke-width:0.26458333;stroke-miterlimit:5;stroke-dasharray:none;opacity:1"
       sodipodi:nodetypes="cc"
       inkscape:connector-curvature="0" />
  </g>
</svg>
