<?xml version="1.0" encoding="UTF-8" standalone="no"?>
<!-- Created with Inkscape (http://www.inkscape.org/) -->

<svg
   xmlns:dc="http://purl.org/dc/elements/1.1/"
   xmlns:cc="http://creativecommons.org/ns#"
   xmlns:rdf="http://www.w3.org/1999/02/22-rdf-syntax-ns#"
   xmlns:svg="http://www.w3.org/2000/svg"
   xmlns="http://www.w3.org/2000/svg"
   xmlns:sodipodi="http://sodipodi.sourceforge.net/DTD/sodipodi-0.dtd"
   xmlns:inkscape="http://www.inkscape.org/namespaces/inkscape"
   width="15.875234mm"
   height="10.584516mm"
   viewBox="0 0 15.875231 10.584516"
   version="1.1"
   id="svg5"
   inkscape:version="0.92.3 (2405546, 2018-03-11)"
   sodipodi:docname="resistance-ajustable.svg"
   inkscape:export-filename="/home/anthony/Documents/work/labnbook/labnbook/public/tool_zwibbler/icons/phy_elec_new/fulllib-zwibblersvg.png"
   inkscape:export-xdpi="96"
   inkscape:export-ydpi="96">
  <metadata
     id="metadata2803">
    <rdf:RDF>
      <cc:Work
         rdf:about="">
        <dc:format>image/svg+xml</dc:format>
        <dc:type
           rdf:resource="http://purl.org/dc/dcmitype/StillImage" />
      </cc:Work>
    </rdf:RDF>
  </metadata>
  <sodipodi:namedview
     id="namedview7"
     pagecolor="#ffffff"
     bordercolor="#666666"
     borderopacity="1.0"
     inkscape:pageshadow="2"
     inkscape:pageopacity="0.0"
     inkscape:pagecheckerboard="0"
     inkscape:document-units="mm"
     showgrid="true"
     showguides="true"
     inkscape:guide-bbox="true"
     inkscape:zoom="8"
     inkscape:cx="4.3030855"
     inkscape:cy="-11.988385"
     inkscape:window-width="1853"
     inkscape:window-height="1136"
     inkscape:window-x="1987"
     inkscape:window-y="27"
     inkscape:window-maximized="1"
     inkscape:current-layer="layer1"
     inkscape:snap-page="true"
     inkscape:snap-text-baseline="true"
     inkscape:snap-center="true"
     inkscape:snap-object-midpoints="true"
     inkscape:snap-midpoints="true"
     inkscape:snap-smooth-nodes="true"
     inkscape:snap-intersection-paths="true"
     inkscape:object-paths="true"
     inkscape:snap-grids="false"
     fit-margin-top="0"
     fit-margin-left="0"
     fit-margin-right="0"
     fit-margin-bottom="0">
    <inkscape:grid
       type="xygrid"
       id="grid130"
       originx="-68.791494"
       originy="-209.01951"
       dotted="false" />
  </sodipodi:namedview>
  <defs
     id="defs2" />
  <g
     inkscape:label="Calque 1"
     inkscape:groupmode="layer"
     id="layer1"
     transform="translate(-68.791833,-209.01965)">
    <rect
       style="opacity:0.337672;fill:none;stroke-width:0.26458333;stroke-linecap:round;stroke-miterlimit:4;stroke-dasharray:none"
       id="rect1285-3-5-8-97-2"
       width="15.875"
       height="10.583333"
       x="68.792007"
       y="209.02083" />
    <rect
       x="71.437843"
       y="212.46042"
       width="10.583332"
       height="3.9687502"
       fill="#ffffff"
       id="rect797"
       style="stroke:#000000;stroke-width:0.26458333;stroke-miterlimit:4;stroke-dasharray:none" />
    <path
       d="m 72.384776,218.87636 8.806429,-8.63716"
       id="path799"
       style="fill:none;fill-rule:evenodd;stroke:#000000;stroke-width:0.26458333;stroke-miterlimit:4;stroke-dasharray:none"
       sodipodi:nodetypes="cc" />
    <path
       d="m 71.437843,214.3125 -2.645838,4.6e-4"
       id="path801"
       style="fill:none;fill-rule:evenodd;stroke:#000000;stroke-width:0.26458332;stroke-linecap:butt;stroke-miterlimit:4;stroke-dasharray:none"
       sodipodi:nodetypes="cc"
       inkscape:connector-curvature="0" />
    <path
       d="m 82.021175,214.3125 2.645832,7e-4"
       id="path803"
       style="fill:none;fill-rule:evenodd;stroke:#000000;stroke-width:0.26458332;stroke-linecap:butt;stroke-miterlimit:4;stroke-dasharray:none"
       sodipodi:nodetypes="cc"
       inkscape:connector-curvature="0" />
    <path
       d="m 80.181304,209.1933 2.019802,2.09179"
       id="path805"
       style="fill:none;fill-rule:evenodd;stroke:#000000;stroke-width:0.26458333;stroke-miterlimit:4;stroke-dasharray:none" />
  </g>
</svg>
