<?xml version="1.0" encoding="UTF-8" standalone="no"?>
<!-- Created with Inkscape (http://www.inkscape.org/) -->

<svg
   xmlns:dc="http://purl.org/dc/elements/1.1/"
   xmlns:cc="http://creativecommons.org/ns#"
   xmlns:rdf="http://www.w3.org/1999/02/22-rdf-syntax-ns#"
   xmlns:svg="http://www.w3.org/2000/svg"
   xmlns="http://www.w3.org/2000/svg"
   xmlns:sodipodi="http://sodipodi.sourceforge.net/DTD/sodipodi-0.dtd"
   xmlns:inkscape="http://www.inkscape.org/namespaces/inkscape"
   width="15.875072mm"
   height="10.583333mm"
   viewBox="0 0 15.875069 10.583333"
   version="1.1"
   id="svg5"
   inkscape:version="0.92.3 (2405546, 2018-03-11)"
   sodipodi:docname="thermistance.svg"
   inkscape:export-filename="/home/anthony/Documents/work/labnbook/labnbook/public/tool_zwibbler/icons/phy_elec_new/fulllib-zwibblersvg.png"
   inkscape:export-xdpi="96"
   inkscape:export-ydpi="96">
  <metadata
     id="metadata449">
    <rdf:RDF>
      <cc:Work
         rdf:about="">
        <dc:format>image/svg+xml</dc:format>
        <dc:type
           rdf:resource="http://purl.org/dc/dcmitype/StillImage" />
      </cc:Work>
    </rdf:RDF>
  </metadata>
  <sodipodi:namedview
     id="namedview7"
     pagecolor="#ffffff"
     bordercolor="#666666"
     borderopacity="1.0"
     inkscape:pageshadow="2"
     inkscape:pageopacity="0.0"
     inkscape:pagecheckerboard="0"
     inkscape:document-units="mm"
     showgrid="true"
     showguides="true"
     inkscape:guide-bbox="true"
     inkscape:zoom="11.313709"
     inkscape:cx="38.115396"
     inkscape:cy="12.356738"
     inkscape:window-width="1853"
     inkscape:window-height="1136"
     inkscape:window-x="1987"
     inkscape:window-y="27"
     inkscape:window-maximized="1"
     inkscape:current-layer="layer1"
     inkscape:snap-page="true"
     inkscape:snap-text-baseline="true"
     inkscape:snap-center="true"
     inkscape:snap-object-midpoints="true"
     inkscape:snap-midpoints="true"
     inkscape:snap-smooth-nodes="true"
     inkscape:snap-intersection-paths="true"
     inkscape:object-paths="true"
     inkscape:snap-grids="false"
     fit-margin-top="0"
     fit-margin-left="0"
     fit-margin-right="0"
     fit-margin-bottom="0">
    <inkscape:grid
       type="xygrid"
       id="grid130"
       originx="-161.39612"
       originy="-209.02046"
       dotted="false" />
  </sodipodi:namedview>
  <defs
     id="defs2" />
  <g
     inkscape:label="Calque 1"
     inkscape:groupmode="layer"
     id="layer1"
     transform="translate(-161.39655,-209.02061)">
    <rect
       style="opacity:0.337672;fill:none;stroke-width:0.26458333;stroke-linecap:round;stroke-miterlimit:4;stroke-dasharray:none"
       id="rect1285-3-5-8-9"
       width="15.875"
       height="10.583333"
       x="161.39662"
       y="209.02061" />
    <g
       id="g12503"
       transform="translate(14.17209,1.0900656)"
       style="stroke-width:0.26458333;stroke-miterlimit:4;stroke-dasharray:none">
      <rect
         x="149.86655"
         y="211.37035"
         width="10.583329"
         height="3.9687531"
         fill="#ffffff"
         id="rect891"
         style="stroke:#000000;stroke-width:0.26458333;stroke-miterlimit:4;stroke-dasharray:none"
         ry="0" />
      <g
         fill="none"
         fill-rule="evenodd"
         id="g901"
         style="stroke:#000000;stroke-width:1.00000001;stroke-miterlimit:4;stroke-dasharray:none"
         transform="matrix(0.26458333,0,0,0.26458333,134.80521,139.53596)">
        <path
           d="m 50.720987,292.61548 15.664145,0.0469 27.419406,-28.28269"
           id="path893"
           style="stroke-width:1.00000001;stroke-linecap:butt;stroke-miterlimit:4;stroke-dasharray:none"
           sodipodi:nodetypes="ccc" />
        <path
           d="m 57.500006,278.50005 -10.560837,0.003"
           id="path895"
           style="stroke-width:1.00000001;stroke-linecap:butt;stroke-miterlimit:4;stroke-dasharray:none"
           sodipodi:nodetypes="cc" />
        <path
           d="m 96.924722,278.5 9.914278,0"
           id="path897"
           style="stroke-width:1.00000001;stroke-linecap:butt;stroke-miterlimit:4;stroke-dasharray:none"
           inkscape:connector-curvature="0"
           sodipodi:nodetypes="cc" />
      </g>
    </g>
  </g>
</svg>
