<?xml version="1.0" encoding="UTF-8" standalone="no"?>
<!-- Created with Inkscape (http://www.inkscape.org/) -->

<svg
   width="10.590943mm"
   height="15.875mm"
   viewBox="0 0 10.590941 15.875"
   version="1.1"
   id="svg5"
   inkscape:version="1.1.1 (1:1.1+202109281949+c3084ef5ed)"
   sodipodi:docname="transfo.svg"
   inkscape:export-filename="/home/anthony/Documents/work/labnbook/labnbook/public/tool_zwibbler/icons/phy_elec_new/fulllib-zwibblersvg.png"
   inkscape:export-xdpi="96"
   inkscape:export-ydpi="96"
   xmlns:inkscape="http://www.inkscape.org/namespaces/inkscape"
   xmlns:sodipodi="http://sodipodi.sourceforge.net/DTD/sodipodi-0.dtd"
   xmlns="http://www.w3.org/2000/svg"
   xmlns:svg="http://www.w3.org/2000/svg"
   xmlns:rdf="http://www.w3.org/1999/02/22-rdf-syntax-ns#"
   xmlns:cc="http://creativecommons.org/ns#"
   xmlns:dc="http://purl.org/dc/elements/1.1/">
  <metadata
     id="metadata1757">
    <rdf:RDF>
      <cc:Work
         rdf:about="">
        <dc:format>image/svg+xml</dc:format>
        <dc:type
           rdf:resource="http://purl.org/dc/dcmitype/StillImage" />
      </cc:Work>
    </rdf:RDF>
  </metadata>
  <sodipodi:namedview
     id="namedview7"
     pagecolor="#ffffff"
     bordercolor="#666666"
     borderopacity="1.0"
     inkscape:pageshadow="2"
     inkscape:pageopacity="0.0"
     inkscape:pagecheckerboard="0"
     inkscape:document-units="mm"
     showgrid="true"
     showguides="true"
     inkscape:guide-bbox="true"
     inkscape:zoom="22.627417"
     inkscape:cx="18.870912"
     inkscape:cy="39.642174"
     inkscape:window-width="2488"
     inkscape:window-height="1403"
     inkscape:window-x="1992"
     inkscape:window-y="0"
     inkscape:window-maximized="1"
     inkscape:current-layer="layer1"
     inkscape:snap-page="true"
     inkscape:snap-text-baseline="true"
     inkscape:snap-center="true"
     inkscape:snap-object-midpoints="true"
     inkscape:snap-midpoints="true"
     inkscape:snap-smooth-nodes="true"
     inkscape:snap-intersection-paths="true"
     inkscape:object-paths="true"
     inkscape:snap-grids="false"
     fit-margin-top="0"
     fit-margin-left="0"
     fit-margin-right="0"
     fit-margin-bottom="0">
    <inkscape:grid
       type="xygrid"
       id="grid130"
       originx="-71.437227"
       originy="-222.24764"
       dotted="false" />
    <sodipodi:guide
       position="2.6495402,14.189329"
       orientation="1,0"
       id="guide835" />
    <sodipodi:guide
       position="7.9374982,2.64384"
       orientation="1,0"
       id="guide837" />
    <sodipodi:guide
       position="4.085401,14.555403"
       orientation="0,-1"
       id="guide839" />
  </sodipodi:namedview>
  <defs
     id="defs2" />
  <g
     inkscape:label="Calque 1"
     inkscape:groupmode="layer"
     id="layer1"
     transform="translate(-71.437687,-222.24779)">
    <g
       id="g858"
       transform="matrix(0.49925183,0,0,4.7476832,-19.034872,-432.12773)">
      <g
         id="g840"
         transform="matrix(1.1424099,0,0,0.33068773,104.92233,88.23331)">
        <rect
           style="fill:#ffffff;fill-opacity:1;stroke-width:0.264583;stroke-linecap:round;stroke-miterlimit:8;paint-order:fill markers stroke"
           id="rect1329"
           width="9.2654734"
           height="7.9243312"
           x="71.434753"
           y="150.82243" />
      </g>
    </g>
    <rect
       style="opacity:0.33767221;fill:none;fill-opacity:1;stroke-width:0;stroke-linecap:round;stroke-miterlimit:4;stroke-dasharray:none"
       id="rect1285-3-5-8-97-31-9"
       width="10.583333"
       height="15.875"
       x="71.437843"
       y="222.24779" />
    <path
       d="m 71.437844,224.89362 h 3.177244 c 0,0 1.365515,0 1.365515,1.32291 0,1.32292 -1.365515,1.32292 -1.365515,1.32292 0,0 1.365515,0 1.365515,1.32292 0,1.32291 -1.365515,1.32291 -1.365515,1.32291 0,0 1.365515,0 1.365515,1.32292 0,1.32292 -1.365515,1.32292 -1.365515,1.32292 0,0 1.365515,0 1.365515,1.32291 0,1.32292 -1.365515,1.32292 -1.365515,1.32292 l -3.177244,0.002"
       id="path922"
       style="fill:none;fill-opacity:1;fill-rule:evenodd;stroke:#000000;stroke-width:0.26458333;stroke-linecap:butt;stroke-miterlimit:4;stroke-dasharray:none"
       sodipodi:nodetypes="ccscscscscc"
       inkscape:connector-curvature="0" />
    <path
       d="m 82.028473,235.47895 h -3.177244 c 0,0 -1.365515,0 -1.365515,-1.32291 0,-1.32292 1.365515,-1.32292 1.365515,-1.32292 0,0 -1.365515,0 -1.365515,-1.32292 0,-1.32291 1.365515,-1.32291 1.365515,-1.32291 0,0 -1.365515,0 -1.365515,-1.32292 0,-1.32292 1.365515,-1.32292 1.365515,-1.32292 0,0 -1.365515,0 -1.365515,-1.32291 0,-1.32292 1.365515,-1.32292 1.365515,-1.32292 l 3.177244,-0.002"
       id="path922-6"
       style="fill:none;fill-opacity:1;fill-rule:evenodd;stroke:#000000;stroke-width:0.26458333;stroke-linecap:butt;stroke-miterlimit:4;stroke-dasharray:none"
       sodipodi:nodetypes="ccscscscscc"
       inkscape:connector-curvature="0" />
  </g>
</svg>
